[gd_scene load_steps=6 format=2]

[ext_resource path="res://scenes/Projectile.gd" type="Script" id=1]
[ext_resource path="res://tex/poop.png" type="Texture" id=2]
[ext_resource path="res://tex/poop-decal-1.png" type="Texture" id=3]

[sub_resource type="PhysicsMaterial" id=1]
resource_name = "PooPhysics"
rough = true
absorbent = true

[sub_resource type="CapsuleShape2D" id=2]
radius = 14.798
height = 29.7303

[node name="Projectile" type="RigidBody2D" groups=["shit"]]
position = Vector2( 640, 0 )
physics_material_override = SubResource( 1 )
contacts_reported = 1
contact_monitor = true
applied_torque = 1000.0
script = ExtResource( 1 )

[node name="Sprite" type="Sprite" parent="."]
texture = ExtResource( 2 )

[node name="CollisionShape2D" type="CollisionShape2D" parent="."]
shape = SubResource( 2 )

[node name="VisibilityNotifier2D" type="VisibilityNotifier2D" parent="."]
position = Vector2( 0, 0.187292 )
scale = Vector2( 1.47117, 2.94544 )

[node name="Timer" type="Timer" parent="."]
wait_time = 1.5
one_shot = true
autostart = true
__meta__ = {
"_editor_description_": "When timed out, stop applying torque"
}

[node name="Polygon2D" type="Polygon2D" parent="."]
visible = false
texture = ExtResource( 3 )
polygon = PoolVector2Array( -379.634, -120.942, 422.356, -120.942, 199.581, 190.943, -112.304, 190.943 )
uv = PoolVector2Array( 9.53674e-07, 3.33786e-06, 70, -4.76837e-07, 70, 70, -4.76837e-07, 70 )
polygons = [ PoolIntArray( 0, 1, 2, 3 ) ]
internal_vertex_count = 4

[node name="Sprite2" type="Sprite" parent="."]
visible = false
texture = ExtResource( 3 )

[connection signal="body_entered" from="." to="." method="_on_Projectile_body_entered"]
[connection signal="screen_exited" from="VisibilityNotifier2D" to="." method="_on_VisibilityNotifier2D_screen_exited"]
[connection signal="timeout" from="Timer" to="." method="_on_Timer_timeout"]
